/Users/delvinngauv/Library/CloudStorage/OneDrive-KBWKantonsschuleBüelrainWinterthur/BBW/2. Klasse BBW/2. Semester/M347/ref-card-03/src/main/java/ch/bbw/architecturerefcard03/controller/MainController.java
/Users/delvinngauv/Library/CloudStorage/OneDrive-KBWKantonsschuleBüelrainWinterthur/BBW/2. Klasse BBW/2. Semester/M347/ref-card-03/src/main/java/ch/bbw/architecturerefcard03/model/Joke.java
/Users/delvinngauv/Library/CloudStorage/OneDrive-KBWKantonsschuleBüelrainWinterthur/BBW/2. Klasse BBW/2. Semester/M347/ref-card-03/src/main/java/ch/bbw/architecturerefcard03/model/Section.java
/Users/delvinngauv/Library/CloudStorage/OneDrive-KBWKantonsschuleBüelrainWinterthur/BBW/2. Klasse BBW/2. Semester/M347/ref-card-03/src/main/java/ch/bbw/architecturerefcard03/service/DatabaseService.java
/Users/delvinngauv/Library/CloudStorage/OneDrive-KBWKantonsschuleBüelrainWinterthur/BBW/2. Klasse BBW/2. Semester/M347/ref-card-03/src/main/java/ch/bbw/architecturerefcard03/ArchitectureRefCard03Application.java
/Users/delvinngauv/Library/CloudStorage/OneDrive-KBWKantonsschuleBüelrainWinterthur/BBW/2. Klasse BBW/2. Semester/M347/ref-card-03/src/main/java/ch/bbw/architecturerefcard03/service/JokeRepository.java
/Users/delvinngauv/Library/CloudStorage/OneDrive-KBWKantonsschuleBüelrainWinterthur/BBW/2. Klasse BBW/2. Semester/M347/ref-card-03/src/main/java/ch/bbw/architecturerefcard03/controller/JokeRestController.java
